<?xml version="1.0" encoding="utf-8"?>
<!-- Generator: Adobe Illustrator 22.0.1, SVG Export Plug-In . SVG Version: 6.00 Build 0)  -->
<svg version="1.1" id="Слой_2" xmlns="http://www.w3.org/2000/svg" xmlns:xlink="http://www.w3.org/1999/xlink" x="0px" y="0px"
	 viewBox="0 0 706 581" style="enable-background:new 0 0 706 581;" xml:space="preserve">
<style type="text/css">
	.st0{fill:#F4F4F4;}
	.st1{fill:none;stroke:#FFAB09;stroke-width:8;stroke-linejoin:round;stroke-miterlimit:10;}
	.st2{fill:#302E81;}
	.st3{fill:#FFAB09;fill-opacity:0.92;}
	.st4{fill:none;}
	.st5{font-family:'Forum';}
	.st6{font-size:60px;}
	.st7{font-size:36px;}
</style>
<rect class="st0" width="706" height="581"/>
<g>
	<path class="st1" d="M177,261.7c-3.8,0.3-7.7,0.5-11.7,0.5c-64,0-68.7-75.8-115.8-90.1c-47.2-14.3,27.5-67.4,67-81.8
		c-0.6,6.8-0.9,13.7-0.9,20.7C115.6,172.9,139.8,227.8,177,261.7z"/>
	<path class="st1" d="M306.4,261.7c3.8,0.3,7.7,0.5,11.7,0.5c64,0,68.7-75.8,115.8-90.1c47.2-14.3-27.5-67.4-67-81.8
		c0.6,6.8,0.9,13.7,0.9,20.7C367.8,172.9,343.6,227.8,306.4,261.7z"/>
	<path class="st2" d="M369,438.8c0,5.8-2.3,11-6.1,14.7c-3.8,3.8-9,6.1-14.7,6.1H146.8c-11.5,0-20.8-9.3-20.8-20.8
		c0-5.8,2.3-11,6.1-14.7c3.8-3.8,9-6.1,14.7-6.1h16.6c-2.8-3.5-4.4-8-4.4-12.8v-20.3c0-11.5,9.3-20.8,20.8-20.8H218v-59.3
		c-14.2-7-27.5-16.2-39.6-27.2c-44.2-40.3-72.9-105.4-72.9-179c0-8.3,0.4-16.5,1.1-24.6c0.6-7.4,1.6-14.7,2.8-21.9h268.2
		c1.5,8.7,2.6,17.5,3.2,26.6c0.5,6.6,0.7,13.2,0.7,19.9c0,73.8-28.9,139.2-73.4,179.5c-11.7,10.6-24.5,19.4-38.1,26.2V364h43.2
		c11.5,0,20.8,9.3,20.8,20.8v20.3c0,4.8-1.7,9.3-4.4,12.8h18.6C359.7,418,369,427.3,369,438.8z"/>
</g>
<path class="st3" d="M669,481.8c0,45.2-71.7,0-114.5,0c-42.8,0-65.5,71.8-65.5,26.6S511.8,318,554.5,318
	C597.3,318,669,436.5,669,481.8z"/>
<rect x="560" y="399" class="st4" width="22" height="40"/>
<text transform="matrix(1 0 0 1 560 438.959)" class="st0 st5 st6">1</text>
<rect x="157" y="105" class="st4" width="174" height="142"/>
<text transform="matrix(1 0 0 1 191.603 128.9756)"><tspan x="0" y="0" class="st0 st5 st7">Весело </tspan><tspan x="-27" y="43.2" class="st0 st5 st7">проводить </tspan><tspan x="7.6" y="86.4" class="st0 st5 st7">время</tspan></text>
</svg>
