<?xml version="1.0" encoding="utf-8"?>
<!-- Generator: Adobe Illustrator 22.0.1, SVG Export Plug-In . SVG Version: 6.00 Build 0)  -->
<svg version="1.1" id="Слой_1" xmlns="http://www.w3.org/2000/svg" xmlns:xlink="http://www.w3.org/1999/xlink" x="0px" y="0px"
	 viewBox="0 0 152 117" style="enable-background:new 0 0 152 117;" xml:space="preserve">
<style type="text/css">
	.st0{fill:url(#SVGID_1_);}
	.st1{fill:url(#SVGID_2_);}
	.st2{fill:none;}
	.st3{fill:#F4F4F4;}
	.st4{font-family:'Forum';}
	.st5{font-size:30.4393px;}
</style>
<g id="Слой_3">
</g>
<g>
	
		<linearGradient id="SVGID_1_" gradientUnits="userSpaceOnUse" x1="55.0833" y1="720.3759" x2="96.0702" y2="720.3759" gradientTransform="matrix(1 0 0 -1 0 770)">
		<stop  offset="0" style="stop-color:#008AD4"/>
		<stop  offset="1" style="stop-color:#00BCBF"/>
	</linearGradient>
	<path class="st0" d="M90.8,22.6L71.8,46.3c-6,7.3-10.7,10.5-6.6,17.1l-10.1,1.3c0,0,3.1,6.7,9.6,8.3c6.5,1.6,9.5,8.2,9.5,8.2
		c-1.7-10-1-17.7,3-22.4c0,0,8.9-11.2,15.5-19.1c6.6-7.9,1.8-21.8,1.8-21.8L90.8,22.6z"/>
	
		<linearGradient id="SVGID_2_" gradientUnits="userSpaceOnUse" x1="54.7368" y1="720.376" x2="96.4261" y2="720.376" gradientTransform="matrix(1 0 0 -1 0 770)">
		<stop  offset="0" style="stop-color:#008AD4"/>
		<stop  offset="1" style="stop-color:#00BCBF"/>
	</linearGradient>
	<path class="st1" d="M94.4,18c0,0,4.8,13.8-1.8,21.8c-6.6,7.9-15.5,19.1-15.5,19.1c-3.9,4.7-4.7,12.4-3,22.4c0,0-3-6.6-9.5-8.2
		c-6.5-1.6-9.6-8.3-9.6-8.3l10.1-1.3c-4.2-6.6,0.6-9.9,6.6-17.1l19.1-23.7L94.4,18 M94.4,17.6c-0.1,0-0.2,0-0.3,0.1l-3.6,4.6
		L71.5,46.1c-0.9,1.2-1.9,2.2-2.7,3.2c-4.4,5-7.3,8.4-4.2,13.9L55,64.4c-0.1,0-0.2,0.1-0.3,0.2c-0.1,0.1-0.1,0.2,0,0.4
		c0.1,0.3,3.3,6.9,9.8,8.5c6.2,1.5,9.2,7.9,9.2,8c0.1,0.1,0.2,0.2,0.3,0.2c0,0,0.1,0,0.1,0c0.2-0.1,0.3-0.2,0.2-0.4
		c-1.8-10.4-0.8-17.7,2.9-22.1c0.1-0.1,9-11.3,15.5-19.1c6.6-8,2.1-21.6,1.9-22.1C94.7,17.7,94.6,17.6,94.4,17.6
		C94.4,17.6,94.4,17.6,94.4,17.6L94.4,17.6z"/>
</g>
<rect x="19.3" y="82.2" class="st2" width="112.6" height="32.8"/>
<text transform="matrix(0.9036 0 0 1 27.2466 103.1553)" class="st3 st4 st5">AURORA</text>
</svg>
