<?xml version="1.0" encoding="utf-8"?>
<!-- Generator: Adobe Illustrator 22.0.1, SVG Export Plug-In . SVG Version: 6.00 Build 0)  -->
<svg version="1.1" id="Слой_1" xmlns="http://www.w3.org/2000/svg" xmlns:xlink="http://www.w3.org/1999/xlink" x="0px" y="0px"
	 viewBox="0 0 1097 760" style="enable-background:new 0 0 1097 760;" xml:space="preserve">
<style type="text/css">
	.st0{fill:#736ADB;}
	.st1{fill:#F4F4F4;}
</style>
<path class="st0" d="M1045.2,362.1c0,187-187.9,257.1-368.7,338.6C302,869.6,16,395.7,16,208.7c0-187,457-185.2,660.5-185.2
	S1045.2,175.1,1045.2,362.1z"/>
<path class="st1" d="M394,251.9v16.3h-1.3c-0.1-1.1-0.4-2.4-0.9-3.8c-0.5-1.4-1.3-2.7-2.2-3.9c-0.9-1.1-1.9-2.1-3.1-2.9
	c-1.2-0.8-2.6-1.2-4-1.2h-59.9c-1.5,0-2.8,0.4-4,1.2c-1.2,0.9-2.3,1.9-3.3,3c-0.9,1.2-1.6,2.5-2.2,3.9c-0.5,1.4-0.8,2.6-0.9,3.6
	h-1.3v-16.3h5.7c2.8,0,4.7-1.6,5.9-4.8l29.9-78.4l30.2,78c0.6,1.3,1.4,2.5,2.5,3.6c1,1,2.3,1.6,3.6,1.6H394z M325.3,251.9h50.1
	l-25.1-64.6L325.3,251.9z M443.6,255.2c0.6,0,1.3-0.3,2.1-0.8c0.8-0.5,1.2-1.3,1.2-2.2c0-0.2-0.1-0.5-0.3-1c-0.1-0.6-0.3-1.3-0.6-2
	l-16.5-39l-17.2,41c-1.5,3.6-4.4,5.3-8.7,5.3h-2.9v-1.3c1.2,0,2.5-0.6,3.9-1.8c1.5-1.3,2.6-2.8,3.5-4.5l17.7-41.3
	c0.4-1.1,0.6-2,0.6-2.7c0-1-0.7-1.6-2.1-1.6v-1.3h10.5l20,46.8c0.6,1.3,1.5,2.7,2.6,4.3c1.2,1.5,2.3,2.2,3.4,2.2v1.3h-17.3V255.2z
	 M510.2,248c0,0.7,0.1,1.5,0.3,2.3c0.2,0.8,0.4,1.6,0.8,2.3c0.4,0.7,0.9,1.3,1.3,1.8c0.5,0.4,1.1,0.6,1.8,0.6v1.3h-16.9v-1.3
	c0.6,0,1.2-0.3,1.7-0.8c0.5-0.5,1-1.1,1.3-1.8c0.4-0.7,0.7-1.4,0.9-2.2c0.2-0.9,0.3-1.6,0.3-2.3v-18.2c-1,0.2-2,0.7-3.3,1.6
	c-1.2,0.8-2.5,1.8-3.8,3.1c-1.3,1.2-2.6,2.6-3.8,4c-1.2,1.5-2.3,2.9-3.4,4.4c-0.9,1.2-1.6,2.2-2.2,3c-0.6,0.8-1.1,1.5-1.6,2.2
	c-0.9,1.1-1.7,2.2-2.6,3.3c-0.9,1-1.9,1.8-3,2.6c-1,0.8-2.3,1.4-3.8,1.8c-1.5,0.4-3.2,0.6-5.2,0.6h-4.8v-1.3c1,0,2.1-0.3,3.1-0.9
	c1.1-0.6,2.2-1.3,3.3-2.2c1-1,2-2,2.9-3c1-1.1,1.8-2.2,2.5-3.1l4-5.6c1.5-2,3-3.9,4.6-5.9c1.6-2,3.3-3.6,5.3-4.7
	c-3.1-0.1-5.9-0.5-8.3-1.3c-2.4-0.8-4.5-1.8-6.1-3.1c-1.6-1.3-2.9-2.8-3.8-4.4c-0.8-1.7-1.2-3.6-1.2-5.5c0-1.8,0.4-3.6,1.2-5.2
	c0.9-1.6,2.2-3.1,4-4.3c1.8-1.3,4.1-2.3,6.9-3c2.9-0.8,6.3-1.2,10.3-1.2h21.5v1.3c-0.7,0-1.3,0.3-1.8,0.8c-0.4,0.4-0.9,1-1.3,1.7
	c-0.3,0.7-0.6,1.4-0.8,2.2c-0.2,0.8-0.3,1.5-0.3,2.1V248z M479,214.8c0,1.3,0.4,2.6,1.2,3.9c0.9,1.3,2,2.5,3.4,3.5
	c1.5,1,3.1,1.9,4.9,2.6c1.8,0.6,3.8,0.9,5.9,0.9h7.3v-19.6h-8.5c-5.2,0-8.9,0.8-11,2.5C480,210.2,479,212.3,479,214.8z M604.2,248.3
	c0,0.7,0.1,1.4,0.3,2.2c0.3,0.8,0.6,1.5,0.9,2.2c0.3,0.7,0.7,1.3,1.2,1.8c0.4,0.4,1,0.6,1.7,0.6v1.3h-16.5v-1.3
	c0.6,0,1.1-0.2,1.6-0.6c0.5-0.5,1-1.1,1.3-1.8c0.3-0.7,0.6-1.4,0.8-2.2c0.2-0.8,0.3-1.5,0.3-2.2v-17.9c-2,2.1-4.1,3.7-6.4,4.8
	c-2.2,1-4.9,1.6-8.2,1.6c-3.1,0-5.9-0.6-8.3-1.8c-2.4-1.2-4.5-2.8-6.1-4.8c-1.6-2.1-2.8-4.4-3.6-6.9c-0.8-2.6-1.2-5.3-1.2-8.1V210
	c0-0.6-0.1-1.3-0.3-2.1c-0.1-0.8-0.3-1.5-0.5-2.2c-0.3-0.7-0.6-1.3-1-1.7c-0.3-0.5-0.7-0.8-1.2-0.8v-1.3H574v1.3
	c-0.5,0-1,0.3-1.6,0.8c-0.4,0.4-0.8,1-1.2,1.7c-0.3,0.7-0.5,1.4-0.6,2.2c-0.2,0.8-0.3,1.5-0.3,2.1v5.2c0,2.9,0.4,5.5,1.3,7.5
	c0.9,2,2,3.6,3.3,4.9c1.3,1.2,2.7,2.1,4.3,2.7c1.6,0.5,3.1,0.8,4.6,0.8c2.3,0,4.3-0.5,6.1-1.6c1.9-1.1,3.8-2.8,5.7-5.1V210
	c0-0.6-0.1-1.3-0.3-2.1c-0.2-0.8-0.4-1.5-0.8-2.2c-0.3-0.7-0.8-1.3-1.3-1.7c-0.4-0.5-1-0.8-1.6-0.8v-1.3h16.5v1.3
	c-0.7,0-1.3,0.3-1.7,0.8c-0.4,0.4-0.8,1-1.2,1.7c-0.3,0.7-0.6,1.4-0.9,2.2c-0.2,0.8-0.3,1.5-0.3,2.1V248.3z M628.1,230.2
	c0.3,3,1.1,5.9,2.2,8.7c1.1,2.7,2.6,5.1,4.4,7.1c1.9,2.1,4.2,3.8,6.9,5.1c2.7,1.2,5.8,1.8,9.4,1.8c1.9,0,3.9-0.3,6-0.8
	c2.2-0.6,4.2-1.4,6-2.5s3.4-2.3,4.8-3.8c1.5-1.6,2.5-3.3,3-5.2h1.2v9.8c-0.5,0-1.1,0.2-1.8,0.5c-0.6,0.3-1.3,0.8-2.2,1.3
	c-1.7,1-4.1,2.2-7,3.4c-2.9,1.1-6.8,1.7-11.7,1.7c-3.9,0-7.6-0.6-11.2-1.7c-3.5-1.1-6.5-2.9-9.2-5.2c-2.7-2.3-4.9-5.3-6.5-9
	c-1.6-3.6-2.3-8-2.3-13c0-3.2,0.5-6.5,1.6-9.8c1.1-3.3,2.8-6.2,4.9-8.8c2.3-2.7,5.1-4.9,8.6-6.5c3.5-1.6,7.6-2.5,12.5-2.5
	c4.3,0,8.1,0.7,11.3,2.2c3.3,1.5,6,3.5,8.1,6.1c2.2,2.6,3.8,5.7,4.8,9.2s1.6,7.5,1.6,11.7H628.1z M646.9,205.3c-3,0-5.7,0.6-7.9,1.8
	c-2.2,1.2-4,2.8-5.6,4.7c-1.6,1.9-2.8,4.1-3.6,6.5c-0.9,2.4-1.4,4.9-1.7,7.3h37c-0.1-2.5-0.6-5-1.4-7.4c-0.8-2.4-1.9-4.6-3.4-6.5
	s-3.3-3.4-5.6-4.6C652.5,205.9,649.9,205.3,646.9,205.3z M724.3,201.9v13.5H723c0-1-0.2-2-0.7-3c-0.3-1.1-0.9-2.1-1.7-3
	c-0.8-1-1.7-1.7-2.9-2.3c-1-0.6-2.3-0.9-3.6-0.9h-17.3v42.1c0,0.7,0.1,1.4,0.3,2.2c0.3,0.8,0.6,1.5,0.9,2.2c0.4,0.7,0.9,1.3,1.4,1.8
	c0.5,0.4,1.1,0.6,1.8,0.6v1.3H684v-1.3c0.7,0,1.3-0.2,1.8-0.6c0.5-0.5,1-1.1,1.3-1.8c0.4-0.7,0.7-1.4,0.9-2.2
	c0.2-0.8,0.3-1.5,0.3-2.2V210c0-0.6-0.1-1.3-0.3-2.1c-0.2-0.8-0.5-1.5-0.9-2.2c-0.3-0.7-0.8-1.3-1.3-1.7c-0.5-0.5-1.1-0.8-1.8-0.8
	v-1.3H724.3z M757,257.4c-4.3,0-8.2-0.7-11.7-2.1c-3.5-1.5-6.5-3.4-9-5.9c-2.4-2.5-4.3-5.5-5.7-8.8c-1.3-3.4-1.9-7.1-1.9-11.1
	c0-4.2,0.7-8.1,2.2-11.6c1.5-3.6,3.5-6.6,6.1-9.1c2.6-2.5,5.7-4.5,9.2-5.9c3.6-1.4,7.4-2.1,11.6-2.1c4.2,0,8,0.7,11.4,2.1
	c3.5,1.3,6.5,3.2,9,5.6c2.5,2.4,4.5,5.3,5.9,8.7c1.4,3.3,2.1,6.9,2.1,10.9c0,3.7-0.6,7.4-2,10.9c-1.2,3.5-3.1,6.5-5.6,9.2
	c-2.4,2.7-5.5,4.9-9.1,6.5C766,256.6,761.8,257.4,757,257.4z M756.3,205.3c-3.1,0.2-5.9,1-8.3,2.3c-2.3,1.3-4.3,3-6,5.2
	c-1.6,2.1-2.8,4.5-3.6,7.1c-0.8,2.7-1.2,5.4-1.2,8.2c0,3.2,0.5,6.3,1.4,9.4c1,2.9,2.5,5.6,4.3,7.9c1.9,2.3,4.2,4.2,6.8,5.6
	c2.6,1.4,5.5,2.1,8.7,2.1c3.2,0,6-0.7,8.5-2.1c2.5-1.4,4.6-3.2,6.2-5.3c1.6-2.3,2.9-4.8,3.6-7.5c0.9-2.8,1.3-5.5,1.3-8.3
	c0-2.9-0.4-5.7-1.3-8.6c-0.9-2.9-2.2-5.6-4-7.9c-1.8-2.4-4.1-4.4-6.9-5.9C763.1,206,759.9,205.3,756.3,205.3z M466.3,350.2
	c0.7,0,1.3-0.1,1.9-0.4c0.7-0.3,1.3-0.7,2-1c1.4-0.8,3.2-1.6,5.5-2.5c2.3-0.9,5.4-1.3,9.4-1.3c3.9,0,7.5,0.7,10.9,2.1
	c3.5,1.3,6.5,3.2,9.1,5.6c2.6,2.3,4.6,5.2,6.1,8.6c1.5,3.3,2.2,6.9,2.2,10.8c0,4.2-0.7,8-2.2,11.6c-1.5,3.6-3.5,6.7-6.1,9.4
	c-2.6,2.6-5.7,4.7-9.4,6.2c-3.6,1.5-7.6,2.2-12,2.2c-3.6,0-6.4-0.3-8.4-0.9c-2.1-0.7-3.8-1.4-5.2-2.1c-0.8-0.4-1.6-0.7-2.3-0.9
	c-0.7-0.3-1.4-0.4-2.2-0.4v-9.5h1c1.5,3.5,3.6,5.9,6.2,7.3c2.7,1.4,5.7,2.1,9.1,2.1c3.8,0,7.1-0.7,9.9-2.1c2.9-1.4,5.2-3.2,7-5.3
	c1.9-2.2,3.3-4.6,4.3-7.3c1-2.8,1.6-5.5,1.7-8.3h-17.5c-2,0-3.6,0.4-4.9,1.3c-1.2,0.8-1.9,1.9-2.1,3.3H479v-13h1.3
	c0.1,1.5,0.8,2.6,2.1,3.3c1.3,0.6,2.9,0.9,4.9,0.9h17.4c-0.3-2.9-1.2-5.5-2.5-7.9c-1.2-2.5-2.8-4.7-4.7-6.5
	c-1.9-1.8-4.1-3.3-6.6-4.3c-2.4-1-5-1.6-7.8-1.6c-4.6,0-8.1,1.1-10.5,3.3c-2.4,2.2-4.2,4.6-5.2,7.4h-1V350.2z M566.9,359.5
	c0-1-0.2-2-0.5-3.1c-0.3-1.1-0.9-2.1-1.6-3c-0.7-1-1.6-1.7-2.6-2.3c-1-0.6-2.3-0.9-3.6-0.9h-11.4V392c0,0.7,0.1,1.4,0.3,2.2
	c0.2,0.8,0.4,1.6,0.8,2.3c0.4,0.7,0.9,1.3,1.3,1.8c0.5,0.5,1.1,0.8,1.8,0.8v1.3h-16.9v-1.3c0.7,0,1.3-0.3,1.8-0.8
	c0.5-0.5,1-1.1,1.3-1.8c0.4-0.7,0.7-1.4,0.9-2.2c0.2-0.9,0.3-1.6,0.3-2.3v-41.9h-11.2c-1.4,0-2.6,0.3-3.6,0.9
	c-1,0.6-1.9,1.4-2.6,2.3c-0.6,0.9-1.1,1.9-1.4,3c-0.3,1.1-0.5,2.2-0.5,3.1H518v-13.7h50v13.7H566.9z M600.9,401.4
	c-4.3,0-8.2-0.7-11.7-2.1c-3.5-1.5-6.5-3.4-9-5.9c-2.4-2.5-4.3-5.5-5.7-8.8c-1.3-3.4-2-7.1-2-11.1c0-4.2,0.7-8.1,2.2-11.6
	c1.5-3.6,3.5-6.6,6.1-9.1c2.6-2.5,5.7-4.5,9.2-5.9c3.6-1.4,7.4-2.1,11.6-2.1c4.2,0,8,0.7,11.4,2.1c3.5,1.3,6.5,3.2,9,5.6
	c2.5,2.4,4.5,5.3,5.9,8.7c1.4,3.3,2.1,6.9,2.1,10.9c0,3.7-0.6,7.4-1.9,10.9c-1.2,3.5-3.1,6.5-5.6,9.2c-2.4,2.7-5.5,4.9-9.1,6.5
	C609.8,400.6,605.7,401.4,600.9,401.4z M600.1,349.3c-3.1,0.2-5.9,1-8.3,2.3c-2.3,1.3-4.3,3-6,5.2c-1.6,2.1-2.8,4.5-3.6,7.1
	c-0.8,2.7-1.2,5.4-1.2,8.2c0,3.2,0.5,6.3,1.4,9.4c1,2.9,2.5,5.6,4.3,7.9c1.9,2.3,4.2,4.2,6.8,5.6s5.5,2.1,8.7,2.1
	c3.2,0,6-0.7,8.4-2.1c2.5-1.4,4.6-3.2,6.2-5.3c1.6-2.3,2.9-4.8,3.6-7.5c0.9-2.8,1.3-5.5,1.3-8.3c0-2.9-0.4-5.7-1.3-8.6
	c-0.9-2.9-2.2-5.6-4-7.9c-1.8-2.4-4.1-4.4-6.9-5.8C606.9,350,603.7,349.3,600.1,349.3z M369.1,536c0,0.7,0.1,1.5,0.3,2.3
	c0.2,0.8,0.4,1.5,0.8,2.2c0.3,0.7,0.7,1.3,1.2,1.8c0.5,0.5,1.1,0.8,1.7,0.8v1.3h-16.4v-1.3c0.6,0,1.1-0.2,1.6-0.7
	c0.5-0.5,1-1.1,1.3-1.8c0.3-0.8,0.6-1.6,0.8-2.3c0.2-0.9,0.3-1.6,0.3-2.3V498c0-0.6-0.1-1.3-0.3-2.1c-0.2-0.8-0.4-1.5-0.8-2.2
	c-0.3-0.7-0.8-1.3-1.3-1.7c-0.4-0.5-1-0.8-1.6-0.8v-1.3H373v1.3c-0.7,0-1.3,0.3-1.8,0.8c-0.4,0.4-0.8,1-1.2,1.7
	c-0.3,0.7-0.5,1.4-0.6,2.2c-0.2,0.8-0.3,1.5-0.3,2.1v15.7h29.6V498c0-0.6-0.1-1.3-0.3-2.1c-0.2-0.8-0.4-1.5-0.8-2.2
	c-0.3-0.7-0.6-1.3-1.2-1.7c-0.4-0.5-1-0.8-1.7-0.8v-1.3h16.4v1.3c-0.7,0-1.3,0.3-1.8,0.8c-0.4,0.4-0.8,1-1.2,1.7
	c-0.3,0.7-0.6,1.4-0.8,2.2c-0.1,0.8-0.1,1.5-0.1,2.1V536c0,0.7,0.1,1.5,0.3,2.3c0.2,0.8,0.4,1.5,0.8,2.2c0.3,0.7,0.7,1.3,1.2,1.8
	c0.5,0.5,1.1,0.8,1.7,0.8v1.3h-16.4v-1.3c0.6,0,1.1-0.2,1.6-0.7c0.5-0.5,1-1.1,1.3-1.8c0.3-0.8,0.6-1.6,0.8-2.3
	c0.2-0.9,0.3-1.6,0.3-2.3V518h-29.6V536z M444.6,563.1c-1.2,3.6-2.8,6.1-4.7,7.4c-1.8,1.3-3.7,2-5.7,2c-1.3,0-2.5-0.2-3.5-0.7
	s-1.9-0.9-2.7-1.4c-0.8-0.5-1.4-1-1.8-1.4c-0.3-0.4-0.5-0.7-0.5-0.7l4.3-10.5c0.3,1.4,0.8,2.6,1.3,3.5c0.4,0.9,1,1.6,1.8,2.3
	s1.7,1,2.9,1c2.1,0,3.7-1.5,4.9-4.5l6.2-16l-20.8-47.3c-0.7-1.5-1.4-2.8-2.2-3.9c-0.7-1.1-1.9-1.7-3.6-1.7v-1.3h16.8v1.3
	c-0.3,0-0.8,0.3-1.3,0.9c-0.5,0.6-0.8,1.4-0.8,2.3c0,0.7,0.2,1.4,0.5,2.1l16,36.8l15.3-37.6c0.3-0.6,0.4-1.2,0.4-1.7
	c0-0.9-0.3-1.6-0.9-2.1c-0.5-0.5-1.1-0.8-1.7-0.8v-1.3h12.6v1.3c-1.4,0-2.6,0.6-3.6,1.8c-1,1.1-1.7,2.4-2.3,3.9L444.6,563.1z
	 M547.8,534.2c0.5,1,1.2,2.1,1.9,3.1c0.9,1,1.8,2,2.7,2.9c1,0.8,2,1.5,3,2.1c1.1,0.5,2.2,0.8,3.1,0.9v1.3H554
	c-3.6,0-6.5-0.7-8.6-2.2c-2-1.6-3.6-3.5-4.8-5.8l-6.2-12.2c-0.8-2-2.2-3.7-4.2-5.2c-2-1.5-4.1-2.3-6.2-2.5v19.4
	c0,0.6,0.1,1.3,0.3,2.2c0.2,0.8,0.4,1.6,0.8,2.3c0.4,0.7,0.9,1.3,1.4,1.8c0.5,0.5,1.1,0.8,1.8,0.9v1.3h-16.6v-1.3
	c0.7-0.1,1.3-0.4,1.8-0.9c0.5-0.5,1-1.1,1.3-1.8c0.4-0.8,0.7-1.6,0.9-2.3c0.2-0.8,0.3-1.5,0.3-2.2v-19.4c-2.3,0.2-4.3,1-6.2,2.5
	c-1.8,1.5-3.2,3.2-4.2,5.2l-6.1,12.2c-1.1,2.3-2.8,4.2-4.9,5.7c-2.1,1.6-4.9,2.3-8.6,2.3h-4.5v-1.3c1-0.1,2-0.4,3-0.9
	c1-0.6,2-1.3,3-2.1c1-0.9,1.9-1.8,2.7-2.9c0.9-1,1.6-2.1,2.1-3.1l6.1-12.6c1-2,2.8-3.7,5.2-5.2c2.5-1.6,5.4-2.4,8.6-2.6
	c-3.3-3.1-6.8-6.5-10.5-10s-7.3-6.9-10.7-10c-0.3-0.2-1-0.6-2.1-1.3c-1-0.8-2-1.2-2.9-1.3v-1.3h10v1.4c-0.3,0.2-0.4,0.3-0.4,0.4
	c0,0.4,0.1,0.8,0.4,1.2l20,18.6v-13.4c0-1.2-0.4-2.6-1.2-4.2c-0.7-1.6-1.7-2.6-3.1-2.7v-1.3h16.6v1.3c-0.7,0.1-1.3,0.4-1.8,0.9
	c-0.5,0.4-1,1-1.3,1.7c-0.3,0.7-0.7,1.4-0.9,2.2c-0.2,0.8-0.3,1.5-0.3,2.1v13.4l20.2-18.9c0.2-0.2,0.3-0.5,0.3-0.9
	c0-0.1-0.1-0.2-0.4-0.4v-1.4h10v1.3c-0.4,0-1,0.1-1.6,0.4c-0.5,0.3-1,0.6-1.6,0.9c-0.6,0.3-1.2,0.8-1.8,1.3l-21.2,20
	c3.5,0.1,6.4,0.9,8.7,2.3c2.3,1.4,4,3.2,5.1,5.5L547.8,534.2z M579.6,536c0,0.7,0.1,1.5,0.3,2.3c0.2,0.8,0.4,1.5,0.8,2.2
	s0.7,1.3,1.2,1.8c0.5,0.5,1.1,0.8,1.7,0.8v1.3h-16.4v-1.3c0.6,0,1.1-0.2,1.6-0.7c0.5-0.5,1-1.1,1.3-1.8c0.3-0.8,0.6-1.6,0.8-2.3
	c0.2-0.9,0.3-1.6,0.3-2.3V498c0-0.6-0.1-1.3-0.3-2.1c-0.2-0.8-0.4-1.5-0.8-2.2c-0.3-0.7-0.8-1.3-1.3-1.7c-0.4-0.5-1-0.8-1.6-0.8
	v-1.3h16.4v1.3c-0.7,0-1.3,0.3-1.8,0.8c-0.4,0.4-0.8,1-1.2,1.7c-0.3,0.7-0.5,1.4-0.6,2.2c-0.2,0.8-0.3,1.5-0.3,2.1v15.7h29.6V498
	c0-0.6-0.1-1.3-0.3-2.1c-0.2-0.8-0.4-1.5-0.8-2.2c-0.3-0.7-0.6-1.3-1.2-1.7c-0.4-0.5-1-0.8-1.7-0.8v-1.3h16.4v1.3
	c-0.7,0-1.3,0.3-1.8,0.8c-0.4,0.4-0.8,1-1.2,1.7c-0.3,0.7-0.6,1.4-0.8,2.2c-0.1,0.8-0.1,1.5-0.1,2.1V536c0,0.7,0.1,1.5,0.3,2.3
	c0.2,0.8,0.4,1.5,0.8,2.2c0.3,0.7,0.7,1.3,1.2,1.8c0.5,0.5,1.1,0.8,1.7,0.8v1.3h-16.4v-1.3c0.6,0,1.1-0.2,1.6-0.7
	c0.5-0.5,1-1.1,1.3-1.8c0.3-0.8,0.6-1.6,0.8-2.3c0.2-0.9,0.3-1.6,0.3-2.3V518h-29.6V536z M661.6,545.4c-4.3,0-8.2-0.7-11.7-2.1
	c-3.5-1.5-6.5-3.4-9-5.8c-2.4-2.5-4.3-5.5-5.7-8.8c-1.3-3.4-1.9-7.1-1.9-11.1c0-4.2,0.7-8.1,2.2-11.6c1.5-3.6,3.5-6.6,6.1-9.1
	c2.6-2.5,5.7-4.5,9.2-5.9c3.6-1.4,7.4-2.1,11.6-2.1c4.2,0,8,0.7,11.4,2.1c3.5,1.3,6.5,3.2,9,5.6s4.5,5.3,5.8,8.7
	c1.4,3.3,2.1,6.9,2.1,10.9c0,3.7-0.6,7.4-2,10.9c-1.2,3.5-3.1,6.5-5.6,9.2c-2.4,2.7-5.5,4.9-9.1,6.5
	C670.5,544.6,666.3,545.4,661.6,545.4z M660.8,493.3c-3.1,0.2-5.9,1-8.3,2.3c-2.3,1.3-4.3,3-6,5.2c-1.6,2.1-2.8,4.5-3.6,7.1
	c-0.8,2.7-1.2,5.4-1.2,8.2c0,3.2,0.5,6.3,1.4,9.4c1,2.9,2.5,5.6,4.3,7.9c1.9,2.3,4.2,4.2,6.8,5.6c2.6,1.4,5.5,2.1,8.7,2.1
	c3.2,0,6-0.7,8.5-2.1c2.5-1.4,4.6-3.2,6.2-5.3c1.6-2.3,2.9-4.8,3.6-7.5c0.9-2.8,1.3-5.5,1.3-8.3c0-2.9-0.4-5.7-1.3-8.6
	c-0.9-2.9-2.2-5.6-4-7.9c-1.8-2.4-4.1-4.4-6.9-5.9C667.6,494,664.4,493.3,660.8,493.3z M746.3,479.8c0,2.6-0.3,4.8-1,6.5
	c-0.6,1.7-1.5,3.3-2.6,4.5s-2.4,2.4-3.9,3.4c-1.5,1-3,1.9-4.7,2.7c-2.1,1.2-4.2,2.5-6.4,3.9c-2.1,1.4-4,3.3-5.7,5.7
	c-1.6,2.4-3,5.5-4.2,9.2c-1,3.7-1.6,7.6-1.6,11.7h-1.2l-2-14.6c-0.2-0.5-0.3-1.1-0.3-1.8s0-1.3,0-1.8c0-2.3,0.4-4.2,1.2-5.8
	c0.8-1.7,1.8-3.3,3.1-4.6c1.3-1.4,2.7-2.6,4.3-3.6c1.6-1.1,3.3-2.2,4.8-3.3c2.9-1.7,5.4-3.6,7.7-5.5c2.3-2,3.5-4.5,3.5-7.5
	c0-4.8-1.5-8.7-4.5-11.7c-3-3.1-7.2-4.7-12.5-4.7c-6.2,0-10.9,0.8-14.2,2.5c-3.3,1.6-5,4.6-5.2,9h-1.3v-13.6h3.1
	c0.4,0,0.8,0,1.2-0.1c2.3-0.6,4.9-1.1,7.9-1.4c3.1-0.4,5.8-0.6,8.2-0.6c4.5,0,8.4,0.6,11.7,1.8c3.3,1.2,6,2.8,8.1,4.8
	c2.2,2,3.8,4.3,4.8,6.9C745.7,474.3,746.3,477,746.3,479.8z M722.1,540.6c0,1.7-0.6,3.2-1.8,4.4c-1.1,1.3-2.6,2-4.3,2
	c-1.8,0-3.3-0.6-4.6-2c-1.2-1.2-1.8-2.7-1.8-4.4c0-1.7,0.6-3.2,1.8-4.4c1.2-1.2,2.7-1.8,4.6-1.8c1.7,0,3.2,0.6,4.3,1.8
	C721.5,537.4,722.1,538.9,722.1,540.6z"/>
</svg>
